Status: OK
Time Taken: 19
Size: 0
Timestamp: Sun Mar 10 01:14:56 CET 2019
TestStep: Property Transfer

----------------- Messages ------------------------------
Performed transfer [id -> Check user]
Performed transfer [id -> Delete user]
----------------------------------------------------
id -> Check user transferred [[11]] from [User created.Response] to [Check user.id]
------------ source path -------------
id
id -> Delete user transferred [[11]] from [User created.Response] to [Delete User.id]
------------ source path -------------
id
